{
  "type": "service_account",
  "project_id": "protean-aria-358811",
  "private_key_id": "cb98db39dbc5342593787e62ba0562f7b7564107",
  "private_key": "-----BEGIN PRIVATE KEY-----\nMIIEvgIBADANBgkqhkiG9w0BAQEFAASCBKgwggSkAgEAAoIBAQCiosUSHKxmb2qH\nPFuK772XmxyKp9B6WhecOL3JCqbOIxHrSzHWla5kkvVBNUxSnIc1oEw6uCazRWAI\noSaVAZ6Un5VzoiciMxiqjZWgKufofCSXkL8oc0fwu0fvVEx0HZNAlpn+AOF6iUgQ\ngF0hAbmBJLa9irTCTWZP8GWHnmeR6Vwk826ot6UvFJXD7XKnjT09cZC8kXzaTELj\ndWFvlZ6G1GP8EBIXtSSv8wUJsYRb+WGoLAIq67Bt2zoDcjH3jJ/I2UEQXJfc/Hf9\ndPUbS6GVzVouJhclkkdcGiUXD5uMDRdE1/KrJ52VxAqKshz40eWdPmySUsvmGsJm\n5wj6cYuPAgMBAAECggEAB5bP2mNYeiPgf99a/Ys9Y3SGAERfb+4spDS+SmzYUXiF\nJAqAu1zbDpoQSWgwH7oVJx/2nquBhs5fHQKkFxeZwPayFdDEbGNKVzRp0y0ICwBh\nVr9Bjvoo1RIa2Q9Wd/lPVJgSfINUV5BOEBMQBXPGpmuXqWruZL4RiaZpSSBPq0PP\nhqgeq2w/i89cMb+ofHepbOsz2Z4z5CoGyc2+sSmspgL+oXVm8NCHXxthHT+WZshE\ngALZPFQ6kgVsLw2mUA0UOvk2G2QrOIJKAYWe5Owmk2lx8wa7g60a9P6kidgep2PW\nl77B8ZI55ScQU2diebnPBny4GtXdt4tL98CBMUX1qQKBgQDaCvYVUZht3b//fFo2\nMsf0AbwalqdlFOZbQ7cr/jSJHzKv/TumCC/azK5m5/gYRQDz0V7Gj3F7KSF0BctL\n364vuRm5cwyHLNqgmL/uuHAkxcImSN8/oAAVgoKlfkmArYbb0B1MxZx7qBZjO0LU\nEdBPOST0xu+pzrf02bs3L7DsVwKBgQC+8psPS4VfhYurBEU9iKrXs46qzY3GCgT8\nd9acVJ859OifJ82fQlz+lDl6y5jxrKFYwznlYoP3/9/i4wg1ksPAoNZAFuSOz4I/\nGS0H2PRygtVODrZI5qo8gC5MutvMzv8qyme3mgztmw9KGgKKkFee4HVjWcRUk3/O\nu7dlqCrXiQKBgQC69jkp8Iw2cLVIGdW0sXhYlwA3AEVK3E/lo7u1okRj63doBkiW\nRmDaSTWmEXPfQ5PcfQO6WJci1xLTTICUb5kJXLtdE/SDGAfjOvcgd8/ZCCVA9K1Q\n/h30U7M4un/GMYT4iIwHH07djTSdI9xawWeP9tzkcoxgW1vLPMNWP7OCAwKBgQCf\nk7zGkYTLCZ5ps83x2O9+CM9oKxUatnDoVXaDe6z+EJD/wZH0UM/K6jEHUHNnNbA5\nsB4Id8Z2Ud7XjIjlzNvPdhrXwMoOF5lwBig98LCJqpF9BIqObkdC/JS1B0x941gY\neMMpC5NWV0n10brh9jNj0Y4JE5IiZIphSTvBt0LmkQKBgCnCrC4lt3jlo6wSerj3\nJIB4e41W5OrYDd7cBiLgJw43/Jh6LGTFG3i8sb1clXKy9j3cXJl+0kFUw/pZvQrt\njklYV2boyTMODgNkwcj3bLy9d+UqTgE9Gn8OKSPVPkKnjrwCLbpFB7mSurXo7fog\nVk28/ZsvmZ0Mog8oT7qCn6OF\n-----END PRIVATE KEY-----\n",
  "client_email": "mfc-iy97kcxj-jxvtu26vns-zy0672@protean-aria-358811.iam.gserviceaccount.com",
  "client_id": "106054186370585951753",
  "auth_uri": "https://accounts.google.com/o/oauth2/auth",
  "token_uri": "https://oauth2.googleapis.com/token",
  "auth_provider_x509_cert_url": "https://www.googleapis.com/oauth2/v1/certs",
  "client_x509_cert_url": "https://www.googleapis.com/robot/v1/metadata/x509/mfc-iy97kcxj-jxvtu26vns-zy0672%40protean-aria-358811.iam.gserviceaccount.com"
}
