{
  "type": "service_account",
  "project_id": "protean-aria-358811",
  "private_key_id": "565d5dbc9321cd029d605a749ac72f07aa3e3e55",
  "private_key": "-----BEGIN PRIVATE KEY-----\nMIIEvQIBADANBgkqhkiG9w0BAQEFAASCBKcwggSjAgEAAoIBAQCa3+LqE73iNX2f\nq7wgeEnIxp13EZxG7TjFExVn5b5KiqYRs1Um/+r4eaGF7R+i53Sy2V7qeBroFvAR\nkk5s1sbD/S/nR9Hd6udA/E4T78K0jJcByG5VLeN/AM40lX/6liNviwwupjAl27mO\nB7MQS2dPiVZali40vxIlhcByg7SQnbAyApuCUHrghq/96ZkW7jY4rj3W72HgYt8a\nCt9PdgGjCOkOZ2knbbgXCdU7gsDPKN4+7cmpTc0hwW/oA2+ZyO9OcvAdTPADnbJ5\ntHrYaezYTUjUoOkmHYb7VHJpy+CuHxcSViWzZOdsXgLr+cu7PKgzIwyQ+glUjb4k\nOEIrkQ89AgMBAAECggEADgLdO4IHtrRSJiTaQzG+sxxM2J3OPphtf17Hm/ur6IB8\nn7NSq9GRR2NxmnUmXI2GADwsGxg8juysUVqkH7KajtaUA996fBIpU7a/tYwGWGEz\ntCSW3rvlDfNbtGQmDNySXh/9PScpyfMD6XaG252GvipVlqJpkboLgTuFepaxujd1\n1nFKWEpd450lgPfgV7zQicIqNthgqR/l4LIwnJy3hadbOL8J4RvQn/BEwITII8C/\nb6S779Pul9hR4RCZYftCT4vCrUHn64IhhhmIcEd4w+aKKhm2YVneIhIMpk8XLSnj\n5PEozrO8aOO+n0Nu5iiYgZTV/q8XQNcGP/qQGYYWvQKBgQDJbJ5W98S+mf3R3OKl\nZ7gFpn0GctE93mcLZSUE90CTeEbeEwiMnFrlhWQR9/XDlNvnFWV/Yw+/XnnfHZm+\nTa54l0S9TFYGexSKe9dcrZFNmV05LF3eYWyvRbZSwBALBBurHiFbLhH99GfSUTxZ\nglnLCKC09sQjtydNUAbfLLOKCwKBgQDE1nD4nCGu+kgNk4SKx46bBbSFSHVheJGG\nDDM2wNBYhN/4aT8ORwnwgGyb5SQ2PgTOuym/0p5SVqYBxRTUSgvbagTeL/kmWkpU\n191wpQrsCvBRQnRUg08nav+3lutlN/p7PvzM8dlRrB0SHud+gJUzr7KA5qGVpyV0\nXorCzYxg1wKBgEwL1TASdVZcv0aHdY5rPT/s3pEbskIAgLj9o99fFiNXKrJXT0f/\nFBZJqUFbc4822VtCacKRfPWMTsjc3RnLLE7dFZe+hVAHEfdC0EluQkig2WBnjr0R\n3T3DPRW665OtJmERjBhnqWVO7A+smfNVUl9kT4BjFiRB1vXKe/2wW8yHAoGBAL0z\nKm+tE6tvI2b5TsNewbI8r6IVXc6M58QjYe7VMu6C+g16jIOawPENYFgQztfckR5t\nRNn/BvM6GmNFHppXekIzC+7NyfyVeTFINK+b1H3CnfBdohfCB4lqDdZYGHe4cOma\nR8BvD2azu1W5ouYzjjaaQUgpZ1PDz/qlDVfl33MNAoGACPfV4Q4FHx1HptCaIand\n+gu8YeIoWPF6swA6qFfI56SW1ZNRMxke9Kmx0SyPOBRoC1gb8i79KyWgkd9xPHMB\n6HUAaSya4tVqxcZOo07JtJdZIYs1Tb0W1t5GSHf2bI7T15yEzhmZ0zIhOzc7QLuW\nLVbv3J6S06VQp3maaK+o4xY=\n-----END PRIVATE KEY-----\n",
  "client_email": "mfc-wqccq16c8a-q632cwl8ecks6qw@protean-aria-358811.iam.gserviceaccount.com",
  "client_id": "109335253021099209640",
  "auth_uri": "https://accounts.google.com/o/oauth2/auth",
  "token_uri": "https://oauth2.googleapis.com/token",
  "auth_provider_x509_cert_url": "https://www.googleapis.com/oauth2/v1/certs",
  "client_x509_cert_url": "https://www.googleapis.com/robot/v1/metadata/x509/mfc-wqccq16c8a-q632cwl8ecks6qw%40protean-aria-358811.iam.gserviceaccount.com"
}
