{
  "type": "service_account",
  "project_id": "protean-aria-358811",
  "private_key_id": "40a75b768eeee3a684a72f8e05ef6e09048a1889",
  "private_key": "-----BEGIN PRIVATE KEY-----\nMIIEvAIBADANBgkqhkiG9w0BAQEFAASCBKYwggSiAgEAAoIBAQCt3gjAEvC47Z4w\nO6fPbpi13v5q/oLmHnXT8ttT2lj+KnAeL78SjRjbYtME3owqh7g6/4+PA/6axhYH\ngQTbVZMsBrGr/uWEEN9GwtO/m/ePSy5GrkQdlMGLf5LYz8pLAtVGti/OB5xnRul9\nVSa6SL+/DsXWqpK/XM9if44jEvpEftJRyBP7wKimeWC2dUIgAdtYzJ9zrmCSotFy\n7/l9B0/elTS7UZ2X6nshGofvxM/PUFfmv71TgbTV4lNccWbYT53qKLya1xR+TXC7\ncTDq4wsp/TmVDmGfQQ6uk13UMOO6O3+9Ip6cDDPKkyGfIn14l2COoWt1YVOz+Brn\nkISWS3OVAgMBAAECggEAO4iqFV7G54ORpXFf2hLEHo5fLnK8jqBCd1MSj8lVrJ4K\nawOtWORQbRqPJ/0uIIf9aNJGLVHQVd3bADHI4HOSY8JdBwhOPaTrVxbyG4uDvqCf\nFVupfjmH9kS2GyA3Y+zx63cJsnH/t4tb+urzyliLs5eS3Zjli7nzVwZXPKJMaLQ0\n872NEUg1+gl+oAXpoJzpPaeDutM04BD95D6p1tDF95uy26jIaYfvr7kIk4D47RlX\nRvMqR2BCA6yCG2hX2yLCIJSfNuwWWRefWmhcJk0WxSv/SMB95fqr9Fh/1gEt3A5X\nC3GcGRaIixO7wwGQiNAJPb01Fbyy56GGC42Bf04gRwKBgQDqkg8Pl3bDCU5m5Lo0\nnkjSuODdOon/oldfTiEUuEOvmo7QWOeWvbutdHkiCqY5mhZqkZwFbTI0FONXLKR+\nntWiL+Rvwu+0KIKvQoSxlN88L5dkVI1JtFcw/YGilRLTohv72Cf9VBZdBGn2UsgH\nnpAtudDH2fmgpURcclHow2mptwKBgQC9wEx9Z0eyrLSw00gfJ49FV71tN/8PnS8D\nFbEoaYoMAmkIBBMWA/u3VfTCF/Vb9r3uCVtxjVV4dgo1Espjf7+F7OAT9/N0SRtR\nvKUIHBabpSSmBS4HzGzNKsUOepeznmXmraYS5ufc2+PJsGuOAPINplEZqyOcCE2W\n6swShRb9EwKBgDND1pzOunrnpsXgCT4Etd+v3h0bdRt0bGn81kgD+W8AdWPdeke8\nka7X/L1O3INMRMfnqNSax9UQF5tuu0idCA2ZL/CpBuA11lHdVMjGw38Q26JmxDYu\nfrvLO7C/qcys6jbBSAQag4SyuUHHV8YqhlIoARQcdG0CkY0uwu3+/zHDAoGAKwt7\njpsmTacWGmLjooWj37QmuacRSmZ66rU6ChPfCBhn4TSja8QdjxqFup4av/D6Zwxi\nXSEVuYz1hdKsbOPm+6efsYf3B3MqKmGkAnH0wvw0kyDrr0M1j1lbeIxg65NMRIcx\n/Gm7QYP0aaWG0KDwSB5pmWwUWOodR9Yd0zmz3FcCgYAoIs0nQGeUM0obOl7XmFPV\nsJHG90UA9BmHYiwW8KFcg8mVsaknUY94nPzgQIUBujtplYHJvb2W2Fy7f0bZMSW7\nuyvAQ2/AItFf/NEWTWcFMiCSG64gWGeBix7LAbu9eQW9jKXs60cQeCVdcKHQVGiT\nCQHTAw6tPXb5YIC8wXtrjQ==\n-----END PRIVATE KEY-----\n",
  "client_email": "mfc-k5wtrhw0ll8vq5ix9tnbpybw4p@protean-aria-358811.iam.gserviceaccount.com",
  "client_id": "100562943229352941607",
  "auth_uri": "https://accounts.google.com/o/oauth2/auth",
  "token_uri": "https://oauth2.googleapis.com/token",
  "auth_provider_x509_cert_url": "https://www.googleapis.com/oauth2/v1/certs",
  "client_x509_cert_url": "https://www.googleapis.com/robot/v1/metadata/x509/mfc-k5wtrhw0ll8vq5ix9tnbpybw4p%40protean-aria-358811.iam.gserviceaccount.com"
}
