{
  "type": "service_account",
  "project_id": "protean-aria-358811",
  "private_key_id": "4e752dff85c33742d7b2324dae4e0d960541c210",
  "private_key": "-----BEGIN PRIVATE KEY-----\nMIIEvQIBADANBgkqhkiG9w0BAQEFAASCBKcwggSjAgEAAoIBAQCiBbW4lrNDltdQ\nd4p4ZHvgbIhZRn8kDgtdbYzvPSfPdz6Ky4fkoUrvsaiTDRoTP6dDxRq/VikUOiY7\n1fVUF7qc19+HGQtqcuytP9qMBBK1HknR3PDqec3NyI+tTgsEhiTXLS/tMz4rlGD0\nJGrV2kAuTkQUrkqLuH3tyM+WHWprHTi95DA6LmX71Oo3f0n55A3es061Vkbjaj06\nviRNGO+GM+3g10rkDD8Oj0de6j9BEzuk2S9tp+eVNhKQ7OopIuDNuQl+0R4gqVq9\n/9mvfJZUFEXkZYB17L44mpCcTlqgG403rJuEXnOPTaErIMWEn7Q8X15m9T3sf8q8\nw1Tm6s7jAgMBAAECggEAC5wNIWTrA3TTiNiH+4h3t+UPABalFZhMCC3JY3smVx9c\nQ+XBnwhPrk00nxTZQXfWLGz7Naqe1uwzwSXbpmLs5EAzrCKHRuFlRCTHLDE+hevd\nrkP+n06LCKvOX8Sv1WsnSKPcQ0rgsY64Q8Y4QYqZ/rds+W5juQ9HNrqk5UTGU1Zv\nZ3iEZxfEGUNUG8E8mfN67LS7+LHQaJ3qdz30ZmFHaQLQnWPV+oqG30odA+Mm5Pys\n8avsPljTBKqyfU0SaItwCXgbCAQXTNFNKUW1lZlwmmuvAuMfmfXb3iWvMuyZT6xX\nYwImiTyP2pobqkFxd5RnYf6iNBHqsBkWnGLOASvJQQKBgQDdxuyPur4N/NvnyAM2\naAQqZ1r73wicY1w32gtEGXySvjHkZ0zHYMq7Uz/xvgGyKXqentThVFaXMTAtSgsk\nl02qFts3i0nIeJDUDvroiu+bpT5Kdkj7V2HtzqhNpmZpjOVYX4T0QAcfeD525b8R\n9IVagCxBPgZJezeba4fdI6codwKBgQC7BjxSdE8GYt/bq9A6NdmEYf5yYKw+NgGk\nR2GPSKu/N/fq73xf1vZs9GMpQPQss/eU09D1Ae1ee7Kku1lIiMq3Gdtk6msGO+gC\nZnez5/vZw4klz69a+ZxgjMBAvy872qUH9boapyuoTlbIV9ssv1HLNmuUghzQkjiO\nF5Z8V+HT9QKBgCYqK194lWg20WkLpHHiaIUbkC6z7Plsp9v8q9+mOyfNjyxtEmtl\nHr4pz2E8f3I3bSCK2LuGFfiiwFWq3kwHtZfFoyfl0marSNEVWtxVvHIed5+8x0Zp\nfTK9U305W3pigr04gtq9gfxKZwVy9/SRDbnLQNJhaBeRGrqmQJUvo351AoGAZOP2\nQpzPzKgmDwDesag/ETUz6EvSXzUPKaoALSWM0PjGWwyaUbFK+nfTzntlvX/QPY8O\nmD1T6bZdJpSSk5iHksL2Ibh7x78lZ7YTORAaQt1C7Qzekfs5qrQDOmpodqd6g5LB\ntIMeAAtSsX0DlV4YJ8HRwyl1leZrb+u1mJpoDskCgYEAyfqooFXj/ZfNcsqGP8hq\niWOpgv+0M5+PGRpcPGrB4ZVsTnuZiQVGTT4m4VyZ3aHiq+QkugJODLs8/GvZsEYU\nwYjMdUFYCluWc/R3xx7Y9TWbpyLJ/r56L8y7QjwdgvcpRB1HVCG+X0m5ZPN0VKNi\nCBPDnvDUALHMW4rh1XkfoIA=\n-----END PRIVATE KEY-----\n",
  "client_email": "mfc-kwu0bp9m7q33swyxhua0nfud5e@protean-aria-358811.iam.gserviceaccount.com",
  "client_id": "116078167457315844268",
  "auth_uri": "https://accounts.google.com/o/oauth2/auth",
  "token_uri": "https://oauth2.googleapis.com/token",
  "auth_provider_x509_cert_url": "https://www.googleapis.com/oauth2/v1/certs",
  "client_x509_cert_url": "https://www.googleapis.com/robot/v1/metadata/x509/mfc-kwu0bp9m7q33swyxhua0nfud5e%40protean-aria-358811.iam.gserviceaccount.com"
}
