{
  "type": "service_account",
  "project_id": "protean-aria-358811",
  "private_key_id": "94745bb5966c177faaecb2bfa422042c1a5f11da",
  "private_key": "-----BEGIN PRIVATE KEY-----\nMIIEvQIBADANBgkqhkiG9w0BAQEFAASCBKcwggSjAgEAAoIBAQCtaGmZrlDnoiT/\n+yZ4NaczKmnns7qf2UBa7cJPJ/dyTaU94gewzgwwl72msLjtKNEmdjKrkkjFN2OB\n0xk7PWKjDS+Px+w16blfzI08epPEnrWX+1efcnsKWrjKutfhicCTlpcV95FiiKTJ\n0hDeReJSSNqjM5KC7GVh2xhqfKpehO/44CT5YV93wdtBG5EF2MtXufPgq8r8W6UT\n/1r/qQhSdfGaule/l5w4iIMGuMn+Dz16CL/fQUsUz704SHsBxaDmeaXf00gsfbhi\nZpW+ZTux9Bpu+rm8J98lP6dC8cwC30B1x0fhLOCZyFOXqB1Y/LgwTLAU8ODah/ma\n0I4SIQj5AgMBAAECggEALbV3GH5dbyFLdXpDQq6J2y/T6LJ0gAwpLY68iFb1n9id\ntPkuo8k8Z1aoNBcjN8hpkSTY6GbP7cRS43a8kOP2axpfrhu5xOBN79WgaQ+6gbqA\nDYbAKxRnIGyXh0DHBPllnMG2I6E1Xm68WUKZFa4AIUZ480n11bLwamHxRqiD1BPw\n0qL5YE13Bq6kN30VihxtfyhfwiO5UM0lMXAe4ohQjrQ3RhujS6Oh0c8ZtfIq3Eum\n6u+TRd2H3NPEZaOQ4Ur3vks65zbVsye9KqJLktk7xIG71tovQB8Amb9yA0Q25HJF\nko6PA/oDfMt4kFtyucGU9Jehfn1iUUFBsO2j4xlbPQKBgQDrt9iAhl07m4hTOOnk\no8u0d2fVJCLY/yoA/xOiJ7FCsxjaBb/Djn2RtQCBloa5Ay4XmayUeGQ6C2NbyrEx\nMIxXTg46ygSTM9owC8OZ1RapAe3tldEx5pGvDptioN4OzVJ4IMFarWjmaTZgKGTf\nm9X81zGcQ/3Z397m8zJq1N+3JwKBgQC8VA+C2auisdyhxVcx5nXWKtkUMUXO2FyS\nbGxF4dWc00N0lPNTi/k5iwfqmfFaqyUmT/DJh6k/iKpo9wnoCv2rcSoIk3ZmsmeR\n2MVrqPrlLLCW+VlV47DSZ+Eao9oevRzWuVi2YN/cJ3yTkogtrAQPNPA/uTI0Nl93\nmYjf/npS3wKBgGxFox3OGg8iLulDMDREhHIdksUVdyhDdHDGuab3InXnvBeRInda\nARWnlVbw5GshKc/PV7VO44LB7l6gaOmWSjBj+ydH2fgfji4ZiTwk4+a3qylBcrjA\nFtTZGcig6b7U0ve42/ehxZhoZYCfrU4Ez7L2yaPkmzqzmThuJw9pPmVrAoGAJlkz\no2Bxi7qOA77sZ3PXMNoew/bYkSsLhqFfVseKuNloFfgyqCOLh0UhQotAU0cgVHHY\nxSDDvPU2RhNvx/lc+Ckd9wsYBAd2AYPTh32sQThdaRCzOUMZAW83rjYJN1Mo6Sxq\nvRBy5SCBRIeFBU/Or84G0eMDLxCXVgJEld/6xp8CgYEA5bMFibXrJrw7bgO9N3E3\nrkmTnDum8sDaXaLdvzytrM+mtPtZ5UXASZLcqmHFOGvtiZiSfcqI0voToBMtidLz\n3QWsOzOAtPljFEDIMfodPG9qjhHHOSNf3ZhPJS7h3lFGx8pCTocyJgy72nUnHYAw\n2M80lLG2InlldjgKUzmmDG0=\n-----END PRIVATE KEY-----\n",
  "client_email": "mfc-rqi0igv0y706xnub0nhevfq3sw@protean-aria-358811.iam.gserviceaccount.com",
  "client_id": "110124321736680331173",
  "auth_uri": "https://accounts.google.com/o/oauth2/auth",
  "token_uri": "https://oauth2.googleapis.com/token",
  "auth_provider_x509_cert_url": "https://www.googleapis.com/oauth2/v1/certs",
  "client_x509_cert_url": "https://www.googleapis.com/robot/v1/metadata/x509/mfc-rqi0igv0y706xnub0nhevfq3sw%40protean-aria-358811.iam.gserviceaccount.com"
}
