{
  "type": "service_account",
  "project_id": "protean-aria-358811",
  "private_key_id": "8ce6f640ed9a85f30637c0429e0516e78e301d4b",
  "private_key": "-----BEGIN PRIVATE KEY-----\nMIIEvQIBADANBgkqhkiG9w0BAQEFAASCBKcwggSjAgEAAoIBAQCxLDIOPCiq9vmv\nXVfTwi9KodT4iJewk2Cl7p8IRIVXTxUMeOtn1zigVfFndEWeyjV1gWxSNb13iWRD\nENIQuGHvr7hDUfP5QDhIBQrs/WhHsXR3T0k+jY2jsB6kATeW6e972BQ8crLsQv5S\nGqfVybYlON7mn78g58iN49oVXaORiMtO1AZSyDXGcJNlbPVTNWzqPTnBroQtbvUk\nakC2UHaVn5GjQZ1ncsJVa2nWi/HAJ55VxF4dxTHpUee6OZnOqZDO7MErNTCSlfd2\npvT1N9VaUdP2ejifUPw63Eaww4uVeo4GtRUgx0YykHsln27YbVxsL6oQYkS+i/29\n5eTcIAtlAgMBAAECggEADVS2es9i/fjcW6oUgtigcfylnNe7livYq1OTlW3WcfXU\n2ciQFJL4mJ6ELf/CgfVUEBXfaSYlre9hYxHKbztNvy5ZGSj68we2fxDGEYPrC0NF\nG08Uw0dSX30lKRD1tlNpfhze6kIfyAWDGPlsJHrAy6HbqmhdsLj6pFZ/ISQXu8pP\nSn8/uRsSYEW+HlKKt2EdZhSKXRT0oO3kMxYc9IIhfGRLMmzDmN6n82RR9qkivmp9\nrgWUS9b2GiFG6E+zGXB6cGSlKrwzyhvzPtB2zBHwAd7a/ZwsUgTHHdVT8luwFfSc\nzo3OsvDUWfaATxVdxkqKcY/+uTDt4YNypO/4m1vTsQKBgQD20trQUBFvBuzReE8n\n6QKQHriZGFGvLlVjZhOaM2okbMXHYVjKlBBd7xZcQuKvTD0Zzl1BeLTYgq/GZF8o\n74he5sitZHfBCrGP67pwEc5M78Zm4K3MC+b0MpMv4CBN4Q4GHo+faRU6vivXg80d\nkYGLQsocBdv5bEUdSctHhHtN6QKBgQC3wm/b9qVTR9YkpbVFKQCp8W13x/Mj3GKd\ngNrxuIOzXCmc6np+ucKMKfVszoBWpRoKZiEbEMpwwf39xyJdXJyymfHCmLupH2bF\nEhB0oOxczyUnGOeoMJ2MuHX9TEP4ygt2dqemFJzW+JWQNi0N7301kWk1ab7Z/p3X\nzppDC6t4HQKBgQDMvJaY2PG9IQdrsdonBtcDaRhClbOcFljp/JAiBqfy0u8ztYIL\nd8ojwODRYwHZ2umL8GvWlSOdvLnFXRi6QgbigZjQi1fynsYu1aBuubZghzwRtikz\n6mOHCDSjL8xcDWSumscTufzMH1cKi9+muT21oI85s3qGaNLjuoSOLEyDkQKBgEK7\nodPH5pIv7FyysPnEwjD1NEPjoTDMwCNiwCA4WduxBIuvu3x6CWTNeAtjksfkfWh5\nXlxt5Ja+XHbk8l3lXCKgNWPuA3iPpsq6nK8+IZgywdNJABfcT9riwjaSk7yt4yvK\nO2fc5HhNHkOY6RO+fUIO5J45IM4Z4UiWBv+CJWshAoGAEaLoikkkeJhsmKosZXyr\nRdfOBq5D6uF3h3jSX70biCr8Yodj//YzW0u8HFHHvDsEILuG62QyUhsBXOJHo501\n5f1J5iQjEoWN6KWaCl0TblgYdcRQ8Wv2b9DrAVF5S+PK3VtWZuTwUDReLn9jf736\nxtL7qAmFgCiS9pL8mRlM9z4=\n-----END PRIVATE KEY-----\n",
  "client_email": "mfc-uk0uor5hvzxan2zlzjnpdrtonb@protean-aria-358811.iam.gserviceaccount.com",
  "client_id": "103941041229079418601",
  "auth_uri": "https://accounts.google.com/o/oauth2/auth",
  "token_uri": "https://oauth2.googleapis.com/token",
  "auth_provider_x509_cert_url": "https://www.googleapis.com/oauth2/v1/certs",
  "client_x509_cert_url": "https://www.googleapis.com/robot/v1/metadata/x509/mfc-uk0uor5hvzxan2zlzjnpdrtonb%40protean-aria-358811.iam.gserviceaccount.com"
}
