{
  "type": "service_account",
  "project_id": "protean-aria-358811",
  "private_key_id": "6d2531a02ba3eeaf5752a4c52e9c6f7118565d71",
  "private_key": "-----BEGIN PRIVATE KEY-----\nMIIEuwIBADANBgkqhkiG9w0BAQEFAASCBKUwggShAgEAAoIBAQDGH7yVxYm3aOYW\nC7FkxBEo6HbBXfi3/9urO4bgwZ+Po01rIFP5iR0A2JQ5ifLWo9ixlPTu73U/za4P\nSk1WSqU7Q14ZuLSUd6BLaucElsj+pg20Cb/yak+zpr+qZxAQIXFv544WiT3XLQAh\n3pH/NgZOw/xQ/HBqWkp9Ys81dXqF6QdzetV4Hw8CEXex7vfAma7xi9RRwv+8+JHd\nQ43ojDlRCX/EA4J6WAJ0sCX0qSnBrS7A0zCxI44qmSapP2bFPBEHY3io1e4KAV0X\n0V7X03+3qF2IwfDXeWGlzmxBS6iFBCxyUZElb28yTXLtxj+ua56Y21ec/pj9bS+l\nB0mqkC2RAgMBAAECgf86biGwChIThVxWJBytGyX0apqbbJttqIegeG3O20uzkPXE\nIkSh0046caVFUunLY4cE2GlkDjsGFiK/X6pvSJRyZevaqh6XqrAbjeuT7uRYNaDU\n+Asj8zaORR9BoiOankJWPnQpMVCLpTnkwz9LhSNXF3XSbKC6vOY7FGkH2x3HX+yM\nLp6apnQ8retT9oc30A6m1r887ua6kyJFzC1qbb+ib+A+hHT4Vcnf2xC4rtHhOy4r\nWEtKJbBzy/J7UHy8f5XbCqxsECQBrLeWpQc4MajSGJRj3+CB5Z8X5dllRwSKfQxD\nJfqZDIXj+Ihmyk+4Nc99twcbkatgfCXCVTPjuRcCgYEA/ZVDqhB+1hL3CnJEZjnF\n7DaWJdBcxVxDzYgfkvL08+OJrqi+zvE8roewJBJfyhQyMuL3adkWPuomWvufzRg2\nRoYadcyiqb33YbP+uUfwZX52f0PKgCNwptL372tA6hMGcFtgPChSEiCbia85OqZi\n0FrzFDAA9M9LQxQ99jriLSMCgYEAyAMnWDWLrkvlVy8cpUHbTd7qKE+fZehqovFY\ntLnks2l6sfm4/96UhGF9qyimepdEhzlSk4bfmzSg6UA7rdkmm4eixEEetaaE/DFu\nOYT2KW6UiYxTx5EyrUskq0+tyu27UG5vqp4Uehh/T2Yk4WU0yHkon5On7vWpeHQI\nLxRhx7sCgYAsaHhqDut3Z+jVbn9l+5YasNCInL2yXl8NXlpRLLUTBPT2nlyT9xEu\na1rAZmtaA0FrQe4cHkVUDUNcSZaJn0TaAuAdYxHVcgwhkxj3r45857Guxdtvp0Uy\nId4Dkp/SnjRRdt8aieEdhZJXgVUfXUYOwO6yyVlRhf/jJmdXeKZlSwKBgGdnif3G\noRJZVpY+Wxbs905JAtIYaBYtlIPtNqkouh4vWCmPK5/NGQdfx7Knb3pNnjYy4og2\n4H/DM7Wjabc1XwplkzbXW+MZ1gL0I0JFhWZiLxT1oZK5dHO3N5wBs54ITiEFF2Ik\nG/4LkDYiXsrQoftK+D+X/OhDxXvqsRh19x9lAoGBAIAXsT+jewASIk2Dje6gNUnf\n6MpUDBSLJYC4uJTiNCj4pUJunCSpReSmpr1QB8g01OwZfKUjRiKIfIMrBOtFUKiD\nE/SHqSRZtmQqCg6H7Aebe/y5/qU24oe48qPyf6VqDaXuHn6f8WDcw0g1butS6zrS\noMlQRBmnNow9OpPpZOzH\n-----END PRIVATE KEY-----\n",
  "client_email": "mfc-w3z40sj1w6ahwp9votf3zz0a74@protean-aria-358811.iam.gserviceaccount.com",
  "client_id": "104396108189515276871",
  "auth_uri": "https://accounts.google.com/o/oauth2/auth",
  "token_uri": "https://oauth2.googleapis.com/token",
  "auth_provider_x509_cert_url": "https://www.googleapis.com/oauth2/v1/certs",
  "client_x509_cert_url": "https://www.googleapis.com/robot/v1/metadata/x509/mfc-w3z40sj1w6ahwp9votf3zz0a74%40protean-aria-358811.iam.gserviceaccount.com"
}
