{
  "type": "service_account",
  "project_id": "protean-aria-358811",
  "private_key_id": "a78b07ccb6ff59880f6c288d80ce7478a7bef4f0",
  "private_key": "-----BEGIN PRIVATE KEY-----\nMIIEvQIBADANBgkqhkiG9w0BAQEFAASCBKcwggSjAgEAAoIBAQColPT933XwLEYW\nxr0ZBS+2WDuw8TpNZnBYUaeKiB7ZpzXpE5zL3nMTCVBt9yHf+wbX2ZVmukDvV4FD\ncRyN0VVUPhnVqVnkG7Dw0FS3fB6yrVnlfW2rh9mXV3CzLyDs3E+ye1EAhoXDepe8\nEiDOxlKinF5VWpr+k3PM/vwSYA4b0qs/9S+fTTm9snUr7DB4SRuBFSFspbcKs/kV\nElctlD/fHlrV3ZsNhsT5MS63Gbor035av8jXqPL0Riv442ZdP6X7VbOJ3Wlibbq5\nBy/RGY92eUoRZCMV/pfprax+xPRyTUy77elp2/JPU6zZSdYBjAB9KbQmpo5E8vDN\nvF3m24krAgMBAAECggEANy5q8x7OMAuN9a6f/yyfbYR8JXMQrn01kPNJcCMWVhBR\nqTVuQZ1S9Yw684PNZs94cfca3EFjN/Tgrv67ZgB7edPKCRIiBnS5+ll3IYhTVBFC\nN8hSua8CHnPUxBJNKLsEq1uKLC3cYxwhxsH4Uza/ndKpXi8GRQZnBVcBk9I1TA2k\nyPUdjUWm3NP4YEVLcCI2OKt+H4hVeKYPwOLnoVg77kNUjFmWXVOMVLNR7WDbTg+1\nJ4PcDmB0MhnbJHbjdU3OIpUHe0DWPtbMC9/RcM49xRsy7FLWURHTOmgga+EkjGWI\ncei50tQVaXJq095PV8b59A2OBaDe1m1lRDfTMmsnwQKBgQDjdjKjj8VwEzAiVfiT\n73jNDwo9cp1fNStLs0pf5CRgoTrL7Slmnv9NN8QqbYE/43NWSNAibY8QsqbVfzJS\n9Fxxuhsg+kgBC/SoJcCW1LIAiZB6Bqr2kPD2Vmkftuk0P+qzteRHdoStxIQWAx9/\nB2YFifLjsE1e20VYBpF4QfleaQKBgQC9u5udEskusLp+IMeCHsaWlesdIGG84FPU\nlaMDaI++UqmG/SgSXL/GUtRIZXB30D1eESkIMho8KFitCbro+LJIcR3PzQObzKas\nGvBTYbNs5gYrRKboZ1xXfRQ1eWl4Jam2Sp47tWgRQdOw64lvrb7aaB8pNd9QQzOL\nG093+KEgcwKBgDeHQF97lqiAlqybLj73JBdzR32uwEpg0Xv+ffag3FyWn6Lu979s\nq0ivh30QFJCDN0HmLqFo+5cI9f+CuMdVjkfZNgw77V4MDCMMbFKmA/prmtCfVhcx\nVRHeEHXEknPF8scCbYMgpM1C/zfcdVDufnJ1tczt2kWA5BHUMKkZ+gWZAoGAI57l\nSEgOnUVwvd1Jl5RPlFXxHjbGIr+6/V5ajHlFA2ZhjYZZz5i6KHHEiRMCWnwuCUsP\neQpvAnxQqav5+2M1lYQnJKxI0SdK42TrWbwuA3PsFJN/AoLlQ0eoU6HHu1bW1fKM\nYolcUGEbbUvLMbxc6IRD1WjX1CnJs4QdF1kGZyECgYEAjkrK0QbItuAFu4hDKa1R\ngOev0fnA6yjLdyyfS455yUB6W5xMciWNG1BBYQzl8LgqFJxgM6t6GXLdjCCzGuCR\nELHr01yxBU+ZcqvDDWFMSoOzoDmBUF/dmtjk5BBT1QcPtVfhJ+Lv7TPk/011Ax4S\nOpIVIMCSPbgkZgidbR/aXOg=\n-----END PRIVATE KEY-----\n",
  "client_email": "mfc-7ripfptdx6gopi9qqlg16q0y92@protean-aria-358811.iam.gserviceaccount.com",
  "client_id": "115275568849221283835",
  "auth_uri": "https://accounts.google.com/o/oauth2/auth",
  "token_uri": "https://oauth2.googleapis.com/token",
  "auth_provider_x509_cert_url": "https://www.googleapis.com/oauth2/v1/certs",
  "client_x509_cert_url": "https://www.googleapis.com/robot/v1/metadata/x509/mfc-7ripfptdx6gopi9qqlg16q0y92%40protean-aria-358811.iam.gserviceaccount.com"
}
