{
  "type": "service_account",
  "project_id": "protean-aria-358811",
  "private_key_id": "6ceb4d7ff2cec58735a7cd95d77503b5ca31cfcd",
  "private_key": "-----BEGIN PRIVATE KEY-----\nMIIEvQIBADANBgkqhkiG9w0BAQEFAASCBKcwggSjAgEAAoIBAQCIpetQoINbueYt\nB4OOWgnGgpdBQfR3Ib3zFVwatmkKH0VBUYjOEypfWyUnPOUxP2TeQx26vhB4zPCa\nKHj1L7E7mppWbYDX1+B0tXZyaa1r5BhM6MhuI2nlwr1jbnLTj7U++VG9/7Lbw9L5\nuotWfRjtP74QtWmtqT1xgxoKWipy96ijkhatxRoxFMMG9hf8SWSs0M2ZMudCLQsW\n5T+zWDz/JttounTHQXjodD9Bc4gMGGkyUPSqeK0iS7OCHSJJt2arlqnV+K+FCKZ9\nFBTgjQY8LSg38qr7YwRtEtnNjzNSyPtgYOSMjNIN+M83PkoEWMLCO+rbnIqdUE2c\ne7udlq/bAgMBAAECggEAHPKlQI3YdgiSOezTEkeBtaN5nnH183za7BGU0vXcl6/b\nMISwyhMmUVASNVdBqGapHCq0tBhKjgTAXbAAO9TQI3PTiUamWlNZse+1OXSor+gA\nu94+g5KN/wX7sAI4YhgaCc6wYeM2xTadTZkWpopWyv/LaGe+DPOC2DaxQAss3fDI\n8quq8hkFL/qCNExxExAycWSYD2ukRgYNay4CF63J695WNAmYm7Q1ApfSELu5oP/L\nfL1uz2giGKdVlWuG7r+nPLk1xW2fKjfgRw458+4V9AaJbMsWsBuf7ABBXP73JqQj\n5YaNhG8y6q5gFU9W00JRPhr+ZwCM5JCic3Ozmq8+oQKBgQC7h5FaiH0Ob4sbxB1t\nUCes+Z+z9EjHsXKWqCOiZK3DadIBVDVCiUssWFaT1/lEetePqDDFpxNLhvI4XXWI\nGCpNe/cWGjJ7UaKosFZBsYQ+CHPlzGcKpNV4ukT00+2u7M7NjhSbl7xS3rbk5AMp\nM0sMrPTC5T6iGbO20jISQgH5OwKBgQC6inOGl+sUZQ/N1uHl1/KFvyPCo4cjaoQy\n29WgCsQTaxUkrZZg/S32gtfDieXB7UHDQ7CK+Oe6RCbs+1lUsPkuA+xsH6biHzA2\ntEqGVe5VTj1GhqQ5eL4Ybtfv4u98BAqinwm/Gv0c88RzUL48wAgWWJ0G8BuMNKCG\nhnc5Qk254QKBgGK9R9heY1JVgu5UvZXQDYPzT5aF+khC823GDDU2Q5PPxQZ0GzL0\nbUNlI/jmT9YxxAxc54k6plsvK5xoATluV9/CdOALXSc3XajqaBBg8ptjAfsuO9cL\n4WaW1TX/3HctMtpihBFEvKD5qV0tfUiVPF/pNVrlL6xUUh7h4AFjBfz/AoGBAJur\nXJsufiQn7ldlgmCPpLkOeGY+l1Dr2+ShZhXHxjc6Pou8POk1fzzflfV9R3pdZ2rv\nOw3Oh3r+0skjPDob8eX/qjXU+CxtwIt2S1btsRYJU8NeKwA3DdRP8+4hoJ8KtGFf\nfP+5Iw8dMozVDdyemGElk+0tRJ/tbyS0ZBwpg7mhAoGAGVORCE0ILOejTJ6mKWNi\n+RJc5jTwFph6iXr1IYG4TQ8wD4N7mxSag6jdFAe3PS8RH/I2JR1MEsvUVGzePiWt\nhJEPnoH378HEBBfNrL9+Mxg8aeqeO9VWqshH+HH9OuqtuIzt4agdZkJYhpI0lzYU\nfw4DAzKG0Han3Ke9VYVObN0=\n-----END PRIVATE KEY-----\n",
  "client_email": "mfc-t3178b3z1u8fw6lqzee760ohd6@protean-aria-358811.iam.gserviceaccount.com",
  "client_id": "106255966296126916498",
  "auth_uri": "https://accounts.google.com/o/oauth2/auth",
  "token_uri": "https://oauth2.googleapis.com/token",
  "auth_provider_x509_cert_url": "https://www.googleapis.com/oauth2/v1/certs",
  "client_x509_cert_url": "https://www.googleapis.com/robot/v1/metadata/x509/mfc-t3178b3z1u8fw6lqzee760ohd6%40protean-aria-358811.iam.gserviceaccount.com"
}
