{
  "type": "service_account",
  "project_id": "protean-aria-358811",
  "private_key_id": "4f9e45eff8d70d7dab0c75b3bf5d2e67ec89ff1f",
  "private_key": "-----BEGIN PRIVATE KEY-----\nMIIEvwIBADANBgkqhkiG9w0BAQEFAASCBKkwggSlAgEAAoIBAQDMVVrfk/MKmtVs\nbimCijY05soBRIr8wH6fL77qktVT0e2bkx1002UlJu0sgIJqKp4+Lol6Bffpg1ed\nHcC2PTaCNpEFXuv/txccQlQSmbwCXqiMtpCgL3n3NMHU3TOt0ukK0zyIxHwpeAtI\nUFROeAdezmjEPQKZuFH0Nh3PjXVcpL3uK1BAXoYsphRqDt3DfrdALEzLO6Op9Jov\nkqizKIgS6NTKmUPavFSLO+yPxbXXzl3Ih1J2YHz07UMRS6PQy2obTWC/wFj820Ny\nQuK7BtG2fEOnnSyE0k90mnet3/r+RZrRZ0GQZWZCWS4uiZfSVnbozotUdl1YT4vp\nCI44vOLPAgMBAAECggEAIEwxk/t3xCpbJ8t15jtgfBYqwe6KpY7rtM/ANqXE8H3T\nN+8WDdxINYoknQ8nDg70elGyy0XcPN3U4HHOfz/HuOdVHus1FHNlRMM7NMF2FU3P\nCIbm71rxxWBibvoT7BrVWS+wdtHP6mIeLmz8FnckexjXOIWIPrICyj4vkhoC/gSH\nuJYlhT/9pktByk8ShV+dAGNU1Wnj5Pd+J/TpGJ4lXJMSu8XvIX5ZBgeFkkTYhIEF\nmTfPdLjhiWbBx+lAKNruky/1uYYj/3Zmy5jTvGjogN2cM6Bvt/4rC8u7I3lpdPCT\n+2qcMXrABla4oy/K/CbyoE67t8sEjSOU7ciiA8byCQKBgQD2/tpyT63IvN3MZ4aw\nWjXue7WP2oVsLAbTGYFDmNsfpvBK6HTay5ng1Uh6wnb9Ik28fDbd8DqIcvDwnIqS\nV4e1Y73EZM/uNBfbGdSC/2Cwfmgt+CQ+QJdRrNEgnGtoYSPV/KnIPhshLZW/+cUg\n/3pgVjMX0cAQz0GcAsWYfltpawKBgQDTyFjYt0trgbOR4yAXWz5+lF1NlzV0leQD\nWYHvjjlkGpsEiW5zzHKVNkVm7vsS7UQUxm9UXAeApanmfncs2lWJtrt0FgsLbWPi\n3yATVwChVfpoDCExFFCp20pXtKUo6I32pvUWXn/orX6uF0yT/HP6hHAatFeKooFe\ndJ5BBJHRLQKBgQCjp/nWBDWB7KKJ7Y6xCxTxD8cdqgz9v65F8YBU6dNHBbXx7FSB\nJKaw8qEzteZhk3kuip9QLvyZrI843oBytsyUw6HZn3Kmwp2L73F/2vaV+yvMSb66\nANJCq99lXD9Oyg6UmvVkWMJhGXM/4J9dXeoYKwVvoutAOBOg67VBdXfcQQKBgQCX\n9uDZ0NyLbeweOK2kVNLJHUi+DkxLNesBBE8aSCGiVPz7Cmp5KTDnJKQ0MjNy51G8\n3o6wJ8EybK03OXPmeVx7juV/bPnL31iXSKfJeNp46ireUiXXA87FsxbrTDJe4lBL\nto2S2YhKu4N1BD7syW+nSTTv1IwkbGsMDf4ohVDkmQKBgQC9O4OJafMx8DnOuCnm\n7sdTD8s7NhX75wiKS69OoKpBawOUax5CFIFXhiTmM5tLPNmOWoQn38N++mvZX8Ng\nWUAmxA9B58vuqU4+JvSjLmOe6QIs0yVwGLfkVDfK2kLubijeogvrxqo65Su9phbD\n0lvNPPk6SmisP0aB6vu+UiNKkg==\n-----END PRIVATE KEY-----\n",
  "client_email": "mfc-b0enc8gfp2sssplueui4noha4k@protean-aria-358811.iam.gserviceaccount.com",
  "client_id": "111019714763777844279",
  "auth_uri": "https://accounts.google.com/o/oauth2/auth",
  "token_uri": "https://oauth2.googleapis.com/token",
  "auth_provider_x509_cert_url": "https://www.googleapis.com/oauth2/v1/certs",
  "client_x509_cert_url": "https://www.googleapis.com/robot/v1/metadata/x509/mfc-b0enc8gfp2sssplueui4noha4k%40protean-aria-358811.iam.gserviceaccount.com"
}
