{
  "type": "service_account",
  "project_id": "protean-aria-358811",
  "private_key_id": "495f942496bd13a8beafec48ce4f33a32eb8f458",
  "private_key": "-----BEGIN PRIVATE KEY-----\nMIIEvwIBADANBgkqhkiG9w0BAQEFAASCBKkwggSlAgEAAoIBAQCqr/KgrhKZuXfD\nVB5hyqrSRXcU4H6KsWGUVIPV+dxDERot6UmRlu5lHiramGC2hocs1gHUDUUnJYms\nhgcq1B62Y1Z4QRaAQAMR27N2uYQWkhZ0PGgiyG1m2WaU52w603QnrTR15j1NM4VC\nsg0bcBeo+JJLQmCaBLyxCPPChbyasqyXufCeIoj1lczWZGldn0ZiaMPpz6Vu/rDu\nFERiUMTXLSzIxqzEAHyAM36J46BBRUx60Q4vVLyTXmAGJlcr1I/3sdoB/h0nTCVK\n9e4A0STD89dn3RSbdRAyBWbyUVMYhSFGk4UDLWP7dovbJ9hSNPjiRfA4W3MSHlIL\nwb7aDbQvAgMBAAECggEAEkybFwtCjD+RmEaNm/oLQVAtjvaYf8xk7pmhqWWdwy+e\nCRELOvQdqofxm+OdRBmn0Vs/m+6GR5xN0R9svPSRNwhEY3pwQUoGP4+4gwCAVEkk\n5iD5yyIwyceB/hx819EGvCA6Jm+2NRonwyRCpSU/LCA7fZ0SrUCCbaUiORchxss3\nQsWI3OssnO2VVw4SCw8DiCUpfG5WBiluMAgI9cJcNG4TN/F0QJrRM90DlCJ/Szh8\nPkKTVBamfVaQ0NfKCRq2m3SwW5fyyJHUpIUakYP3BV1uNUjqPtjkdnRwZD/9DIMx\nhh8q5gZPe5SWHViSIIjHswaL7ZWFGLxoWH/o6+ENqQKBgQDVPbEYOwwFLubuT68u\nnU+UEtMZRDxC/M26gJzrmIAl3fHMYyJQuMi8sa5R9uv8xvjdMG2JchnihdJDRL+a\nuf7TwbqwT6YYb2ybGT2Gp7EzBL8UOQtssuklGYj5CYj8qTQevrg3JrgA/1Nr9X4X\nSOGOXAWbO5VnW5CMqpDUDjN+dwKBgQDM6diFa2+zcqgCeHiZArG440FxGAyvZbhM\n+Y0yNf9ntwyeYPdI+t/Axx8+Gy18g7NqBderuZfcq6yYRKY6mwQPmtmUBDoXZAHd\nwHC208bVpj5g8IjWx2EgQp1li+6Hcj2bVziF35J8aiODH/cA+GlAIg6+zX0YiPkh\naY/XA3pOCQKBgQDGN+p/E6RAzTBtJjU5p5Fpm3YPbpZ1znmOfC9h8QhuKrmxvBUR\n5DL09FWOa3FCL9L2CSZJNX9KSgsB7M4PDgYK4XKgoelLnYffRL8khIz7V9Ym/j/Y\ncxa2Hd5tYKet9bs1OSQUYDF6+9yX5kOncV/57SBpBCIFSeA8YfDuraTAUQKBgQCo\ntafFQY14C2B0mEeCgwtcFA9fU9Ot3Wv+RECSJI8iDz3ecCto9NSgXdFFSw8KQ0zG\ncAT/qBB2aQnzXCIYgmS3jGCzUz+Y3ogC0Vx7yqUcZoFZQvEHFKTM8MuyPaGn9tDu\nQsOQxWBP+vs+DGVLcTsGyIOnaHwkZTHo5oa9GmnqMQKBgQCYyIG+ArzUioP9Kmxw\ncSINr2EhjkEbg28B0a0fVz+h8TNdnc1+UiePZfgFuzdLr92inXnL1OK7mnUMPKWj\nD39agoHlz0KJBdx5rNosvoPo6I67SjvLSbfWkGIO0eVp6qX+JwioFetQKRIk87kQ\n8A3BMSSM2Kn/ngG63uplWp8PxQ==\n-----END PRIVATE KEY-----\n",
  "client_email": "mfc-a2hayrfvvuuwtfr5gjil7q4sqa@protean-aria-358811.iam.gserviceaccount.com",
  "client_id": "113016472845913413985",
  "auth_uri": "https://accounts.google.com/o/oauth2/auth",
  "token_uri": "https://oauth2.googleapis.com/token",
  "auth_provider_x509_cert_url": "https://www.googleapis.com/oauth2/v1/certs",
  "client_x509_cert_url": "https://www.googleapis.com/robot/v1/metadata/x509/mfc-a2hayrfvvuuwtfr5gjil7q4sqa%40protean-aria-358811.iam.gserviceaccount.com"
}
