{
  "type": "service_account",
  "project_id": "protean-aria-358811",
  "private_key_id": "2429548d550d3ad42e7198129c4f6b78d12848b2",
  "private_key": "-----BEGIN PRIVATE KEY-----\nMIIEvgIBADANBgkqhkiG9w0BAQEFAASCBKgwggSkAgEAAoIBAQCcPw9ZryTLTNy8\n8impE/NvYzXrfRmlHwt13ic2VySaVC5XJjv8z4Ttp2rZyA1xzlU+6n4ESyZTk+rG\npCmseszu6mFdQqtpWw595XiL94wtvbjT0q7r12a35eYQkDmsS9GSu/ls2GCbf1DX\ns/AWPBUEeboPZGtXYySPYxTCtVVebbcAVQMXQ+Z1edmMmHTG8/WVYp0h67K91zbq\n4T12FBA7yt7yXN7wmCpIf/xjpMTYz2iCiDli4BDpEIOkpM1sXk8LChXhLahQVU6U\nEkPxo7EBKNQyYoTpWph1g67M1761iKaPC3PIDg60nZkhRtZ83hujaPOBaQulhy8b\ndqQ05Kf1AgMBAAECggEAPfMQwoXbaFH22WGInBWheQIUkGR/BQWclSS6VmTRyfDj\nmME7mp6q/VFaX7PehMeC7BmsUkZ7kTq+JPlU3qKn23iJlyEGdpTYV5lipNhHN6GY\nBUBtA2xZuUNJZzrP6xz6oJuwJvRZxX2Cz6tz31T+HlKnL1Ao8TKJfeKSiiq8iN4H\neJ3ciu4obo/AEjWTokAzxW4z64apYAqslKEHbRjA7dbXHzDkzZdehEjMhr/vErwY\n5Cy7ZOuPsaiBKWDjbEcw3V8UyuqOOv3bCH1DGeEZe7hCNJJSsKCKea8cO7yCO8pM\nYCZvTI7FSfxHHGciHvvLMzD17naCz7t+Ot907fkEBwKBgQDVfTHVWP5YIysz/eyE\n2XgSfDiXNR8owXRX2ddlbQfkNsBPpAYiJBW6Eixyl+X+V/TR+oZXcprzH8wA8yLl\nRguqm14pFqtbRB/Yo96DWbCvy6tnhrKSPFxkTB/sY0WlCMIZBPG2Pq1hsXB6L0tv\nCytwHTtk33T87+Sw1VXBus7kFwKBgQC7W90sbNU28ld80xKi5DW5xc0t2l61pypr\nBDwS6299b5kedyuewptGM5+ueDXUPEMqgYxSlIiEkz34dfOSVj8z73ApNCYasEda\nCzaoZAHjN1rBhd12NKr7kIKQBpR/4wF56itmkCFpnLbqUaDHrDM6MQU3gcl78QPM\nE6PQrMs/0wKBgQDEmhuHTwJDpneF1MS4fxCtbUosLZZ5UNZUhN9wnxzSVH17miCv\n1i1QAqZ+DVaXiOaDbMPEylzZoqGbCk1LeNsLjTMEgcTiMnVla1th+PnWmqhJmWjf\ndMjc8KHBbpZXah5dLglufH/s5JwhWWaNZ2rkP3dP6NzyhfVDx+LGmsMmlwKBgQCr\nKeGFFGg1KnCCuNHtvk7WyL4JhdXAXleCLPw0zKGuFqXsDzLqdx8jo0XePjPvEJ7L\n1k47ozaU529V7Wv35JMY/0WYXuvwtdp5iIUGkVaoHYnsAj+wHa2W5Q5iRaCktN5E\nYooDyOi9c04oAyq/P7INF3uMmiVX9XdimQ6vNSz5wQKBgHS9dVKihrWvsaHj0qIY\n0tW9BjYch+SrTz1seVF/42xPf1KCAKfO2yDOjRcghGdJVxjsy6P+gY+vbSg7BlHT\ne4rkJM7Ky7Olh5fzhAJZ8iwsYR5klzj6qF+47ScavBSzAMN4s4BL+mXKLtxfTcrt\n3PtZGsc4KnNaElatLzaVaE8O\n-----END PRIVATE KEY-----\n",
  "client_email": "mfc-8sth7xlaylunfipmgb1a4d7wmj@protean-aria-358811.iam.gserviceaccount.com",
  "client_id": "101228224014559097246",
  "auth_uri": "https://accounts.google.com/o/oauth2/auth",
  "token_uri": "https://oauth2.googleapis.com/token",
  "auth_provider_x509_cert_url": "https://www.googleapis.com/oauth2/v1/certs",
  "client_x509_cert_url": "https://www.googleapis.com/robot/v1/metadata/x509/mfc-8sth7xlaylunfipmgb1a4d7wmj%40protean-aria-358811.iam.gserviceaccount.com"
}
