{
  "type": "service_account",
  "project_id": "protean-aria-358811",
  "private_key_id": "3108b0c76f703ee52ec1424a65ac515b3c86702b",
  "private_key": "-----BEGIN PRIVATE KEY-----\nMIIEvQIBADANBgkqhkiG9w0BAQEFAASCBKcwggSjAgEAAoIBAQCuIPpL1CnGQ3pq\nxB0kmEpmT1yUVriYhtJopepkNc3spO0vMC8gDAt0HKYgo0cUf4A/KcUgYJaSObZx\n9XbrXfkPskmbDq8zBWFnlg4YDrRssZn504GXjshojTJmS/4od7fdECZ5WP7uVGyu\n9vviE07+C3d+oT010hO1exiKbj5ll/Wmh0/6T7na+joscLyW/Wuz0qhsy9nV/3Dy\n0OGKEZOIcBrGMzy8yXfsYPl68+vI0jHaHXpDYB/kENGqaCinKJWzD91v5QLqXOfq\nxt9gSQN5x3ojLGqJjnWOYxOTLWGrSa1qX/6BwIVePnLiZaVQpWDJnVJwx+n0bJod\nR1ljIo2lAgMBAAECggEAHa30S6l5h1goDPupZfvpLoAXbRdM9n6AbaLeDT+Yfl3s\nKY9icOlsqFlbvZNnAajr0JhLh8W+1GSu4sSuhNarJZBDeIDrvtwLaq8KbvJOsXoi\nHxF8dLs7EIsEjKgmRXqGZdEjZaqUJUZRkg76BuI4pBeLQhO0jbBleJjnKW06CHGy\nyMnQlFrFjdUuMljr28zt9CMw938IuNWwwL7vOhV3eG22VOqnXtcBeNjwCulEHhGg\nht7AziQkgA+ZoO+WhllMv3tRbhMtVshFX2euejbyEfhvk7L/DD1X1sI52quKdtrI\nAu9i8sweBD/4jd8dnhDnQT7UMSnyYFHs1/dHfIFurwKBgQDX1fA5SKecXeQVCL5J\nscyFypeo/+qP29B3uNRwPQbiWq2Ak71Ow8VpMByaekL5HWcQ/U29AVsB10xQkXCN\n/NX0yKgSmjZs54fl/EAVmzonyzquH+0ExpqfsdRUeitnb5yJ77UO2eHG5vbLI1/Z\nCR2wmpxm3sskWk0B5nK+wOMxBwKBgQDOiDEHT/xW0HpZ6AdUnb00ZuggK428+vb2\nDcv+35hDhVjAelSOG+M+dujIp+bWeTBsSLws2HxvI4ipjrw8vUeRk89klzfFq0AT\nF8nKSawFFZBk1cE1Qz9HLMGEgu9RzaTMuFFyKq6EtJWi9cTIAEpddZ85a9OZg5yM\nbPV1Fp/c8wKBgAIGgO2Yr/H4s5Y68cYxQ/EReKDeXe4hqvAkrOGswO7I2Q321PTz\nQ1v8Vphgg1ZhH0F6jwsyAw+eXJn482xxrfRRGbqq9c3J0m2nE1bgkQgkkRVnOUst\nLfBHs+1jBBtBYd+tfy53fvXl3vUDDPg1bLDmkocomhFqQ4S8C+GcX8VrAoGAGaIh\no6yzvvqlFN+NeV0SjJxxFv0Q3HGxkRxpQzrxJQA54bnNIM4pSClt/umH5vqnnejx\nIgfEee7JGXJTvp4ncdQMm4mBLJFypGwBaY/3P7JLd5hoIHo2MllFs3KkzVxepeIC\nic7uVh4rrEwgnkoa8LqWhoPxgU4qcetcE6o5MS0CgYEAyE5dH1g5Zo8j/xJpnYgc\njzoiKehlEqpYvfZMsYO2UjH4RK/ctfSXu2K9iOobp72Ojrg4l3sa4kW9kV4eBSkd\n/V5SRJcmJP2BCDymF9O2AHICMwATArPcG+5y/Agfqk/XUzTzhI37y8X9Y/poohMN\nHdHehJ3L5e/4UsUtZXE1nDM=\n-----END PRIVATE KEY-----\n",
  "client_email": "mfc-h5ctvgi3nwoq0nyiafoaxpksnh@protean-aria-358811.iam.gserviceaccount.com",
  "client_id": "103593319234765209799",
  "auth_uri": "https://accounts.google.com/o/oauth2/auth",
  "token_uri": "https://oauth2.googleapis.com/token",
  "auth_provider_x509_cert_url": "https://www.googleapis.com/oauth2/v1/certs",
  "client_x509_cert_url": "https://www.googleapis.com/robot/v1/metadata/x509/mfc-h5ctvgi3nwoq0nyiafoaxpksnh%40protean-aria-358811.iam.gserviceaccount.com"
}
