{
  "type": "service_account",
  "project_id": "protean-aria-358811",
  "private_key_id": "93b457f5efe06c112b98863b3d736c828f393afb",
  "private_key": "-----BEGIN PRIVATE KEY-----\nMIIEvAIBADANBgkqhkiG9w0BAQEFAASCBKYwggSiAgEAAoIBAQCqR/WpY+dTkxe1\nOn7LAjkj/UES+lQBeYfL0rTv8yoHuM2Z2tH/R/r+xfvW4V4I94Gh0pfIXWnAFdG6\n+HoW3yYXSiAS16ubojeRt9j6FUIeGciIlXsGF3RiDySH58INQE2/JN2A5ZBXE99X\n5l6Ef1FBB4nsmaMkxg8HXtFneRXytXPoqw/PhT+2hr7WnS2vZYFkjg+uhu3o0Icz\n3RuJjkv+YFaegfeYofN59pihmzNgeLaj82BebeppU7wVHcxWyywfcUqH2T1+26DG\n5byIjTm3ezwuIDqt4NAlxBrYeir15JBYx/p5HwrOnItul7Of3irf6MwLQe3SuPB4\nQpbX4tXNAgMBAAECggEAEBH0fEUCat/B6AeaObx++geHoavgS7dVeoXrL44KVGo7\ndR6ynN4FMRAsQU5Jmp0JLeV7D5zJQyiL/5I9q3Tp2l7TghO6jViU1/q6znc9IywZ\nwdIhpySFhk+Zif30UV3VOInZIbYIlj8438nM98IwP+vfN2YUgH70oiRvrM0/pgUU\nfM2WibtLcHmOqog/vkSr93Xkx3FFJxBl/cNru1hTJJmrXPTOU1TnCFdYtUHBsNrD\naDAhq/6HM6L8vo6SX+yQ3skdWHWvpQxkfSzdht/JXLE9RNPctXK7XVw0/c1ouM8m\nvHsdjzoXlqkekI28cxaSLfylRBaasdqMurZVxE7AHQKBgQDVzi2JPwPWs08q/UUe\n8gFEYi//8ljkLdQa9H57jW+7EgSGmggEoSGReuA/i2j0CYvKJYmZf9thWpCMtGj4\n1UIkGAB1r0YOoH3zcVc/OfLeaXNqEEgLnKdX6EZfLaPIaero5ft8X7C1WONPwtEa\nnu2deHC6baYRBZNfvZtb5hsRJwKBgQDL4tvB8lFufFNi1sgB4ynzaVpI9tP9N3c5\n3l/tzwBfTJlnMOGe2w6LQKzsqP0v4ChO7B30jy1edcaFnOqYYUDQQvX6pzHeqjZg\nE3uWHFeK7OdUs2H97IjIFB5QQjon2Jgdl49GP9sS/zwZs/Vo/315zatXVAWfxdoW\nHqZh8vWR6wKBgFmurEcfmZqbiB++MRoz5PgsP3oay9KarpfH6q4ku7M6cY+MWMSo\nWg5N/nZpIdMLlglrCXbLvNfvRybeHhISUjYVo0u6A6brBynwZupsgkVs8i6ROcc1\nJLSpB6uw1zyfwRuELKMU+Gh5KpAwZcnG1GDzPkXU7I3DSvgj7mDz+nKNAoGAIzEV\nHXTl+VwcSIMqIqlDJHCa1N1F2f8o5SQtCq8gMVLXZ6hYSUMmT4LqVi8VBJ58VqMK\nyJuuCQ/rJETheUvQFCJ6srkJMpXOrOav/kkGE0Sw6T3NPDcHpQFT+iZ0Q0xvdSwj\n3sxG1BCaHxWg1m7DCbMmT/yAvAM6kXbY4S8+k+ECgYAnzVSfvoNWK48dpeLnCVLx\ndSL4utpr7VzajJXCRZQsjNkQQvidY2UoBtffprxS35KSJBfNZpLVebbVB1bSmCiO\nYO+0GEkuH1eJa+P106ulcM9uyesCsBqGPbPTwzp2sdeb1GVDhHOW2v6zlYKejAYB\nj+BO90vkQTyxhsYYWyaJwA==\n-----END PRIVATE KEY-----\n",
  "client_email": "mfc-3lshm4udlpyk3o08l0tv71-ap8@protean-aria-358811.iam.gserviceaccount.com",
  "client_id": "112967874061572387411",
  "auth_uri": "https://accounts.google.com/o/oauth2/auth",
  "token_uri": "https://oauth2.googleapis.com/token",
  "auth_provider_x509_cert_url": "https://www.googleapis.com/oauth2/v1/certs",
  "client_x509_cert_url": "https://www.googleapis.com/robot/v1/metadata/x509/mfc-3lshm4udlpyk3o08l0tv71-ap8%40protean-aria-358811.iam.gserviceaccount.com"
}
