{
  "type": "service_account",
  "project_id": "protean-aria-358811",
  "private_key_id": "47521959c50e31f730cc43a1ba893286a04bd143",
  "private_key": "-----BEGIN PRIVATE KEY-----\nMIIEvQIBADANBgkqhkiG9w0BAQEFAASCBKcwggSjAgEAAoIBAQDdYaSSoETN+3nT\nvsYLdlRJ5S6oqb/hhCX+Rn8014RbtWBhE2Tr8USEO2aarhTU90GhFcxEMdV0kA2l\nswWXTkcrVzqS4uOiAtkFJGx74YrGNaCWUW2D2ERy2NOFk+p+1iMDgvgR9EWVYtCK\n6YBZ11Vq3+cuQXXGFImLb9XqM8ckEgud6++Pl9Cv/AaVZEekn4/wxfQa17NvZUGC\nvcPPNMYquGo4mzjp/U91hRvlPDEfXJMZlYofQfnKI8TaDEuD07uXTHQrfZ35XN/h\nfjef8XSazRky4b2wyjhmdtLGjsjAFK9J8Jirwsyf2BmDA8Z0T1y5vcM3lFPz51kZ\ntxRwc7d7AgMBAAECggEAJBG9zyKsDdrccWqtTike4uqjggPPnsOPBHwMS29BLPID\nJyiSR7udHBBTj33afg0KaopTKC9DEIVMppk29CfjAkWUO7dvkDIiQCtm6NOJbpxG\niFycWSAaSD4EpJ3CK0fiF4yLX4gq8tkmkjjThTpyO9de4r3z8uyIsSkXs4Yb0Efk\nzrOxe5QRTvJjXOwlYwzRAGJRAc/n6yxVXLHX6RgGsYWteVXGc2OYAicFgki05mkc\nPL+5SA3e9mtmGywIJt7cw17DEflKwN9Z0mzla3kZZ9F2K58Z3PTWIy042f+4wIcJ\nFzY7HfaHnAI1jv5HzcTHaeC7c8nRWxWu/lAE9/sTcQKBgQDyrMvG3Op7Ng+69j5N\nTF4N28pDONIy5pbv4czFjqc2dMvCOpd3R06uI5gyOCEznLRDS98DQs+OEa7PmSN7\nEVpkco3vylmY5tRM+kn7QR3JdU5unrxNceg1+s2f15LVht/ADaG9FF09AA4QRZTW\nlkbD5pm1cI9Hx9LMKcl0BdgzsQKBgQDpiYextDnr4u6wgCgVk1ZQKEyf9SCo/XpN\nTfWV+Y6Loj15x8Lw/nP4U7gGOA8M5DcQD8nr+PxEoGGjO9TY7bqGY3Q2WwCfmD0w\nJuJXXYQH5C+0i9gr9bHWby03UM3UDuBN5QDzkdO4UAqByfZL0FqaTa9fPl9OO74w\n6eTsy+WE6wKBgQCiRVeR54FH2HOWUjiA2bL+01yhrKop7TU6vKN/6w73BAyIGUPV\nN7JuEVEhK5VP/NYxNdevR4qgdkSNftpR3d2y00MD+CwHaTrHKooz32v6nV1P7Qb/\nRk6/YbED1FPUQnb15mejlq1uL843pT+Majpxno5j3BuDJSRY7wxNb+cNUQKBgEzd\n8qbf/kyQ5iV8GTV4yGkbypS/tx9IRzAYn+PcPzngjcF+qcBu0DcFP0X0v6drmmAU\nAk9EJaxk6Z4zvEwme0VuiLq3W04sar9lnQxKgIGkbrtLaDyX4xAEiepyEz1gJB4f\naR/CeOBqn/q2QfYUPy4Yscd0nSP/8ArjgXEbb5E/AoGAC/Ymg9Guokd6Q0aOM+j/\nF2zpTckHGNM7V/Ja44RI7PwRV4z9qOWu0WmH20is+k6WJkgYciSuSK4jqZsZmFy8\nENyHfObCqPDeNaOCIUC3x4cz8Qrpa59D78FwT8y5Gkss84BS+I6fsKSuetitiWre\ndIvWz8OKX8X0KNHSQ3hd3YA=\n-----END PRIVATE KEY-----\n",
  "client_email": "mfc-tb193shj2qfxnfe3qv63c7uclb@protean-aria-358811.iam.gserviceaccount.com",
  "client_id": "107048636375524250806",
  "auth_uri": "https://accounts.google.com/o/oauth2/auth",
  "token_uri": "https://oauth2.googleapis.com/token",
  "auth_provider_x509_cert_url": "https://www.googleapis.com/oauth2/v1/certs",
  "client_x509_cert_url": "https://www.googleapis.com/robot/v1/metadata/x509/mfc-tb193shj2qfxnfe3qv63c7uclb%40protean-aria-358811.iam.gserviceaccount.com"
}
