{
  "type": "service_account",
  "project_id": "protean-aria-358811",
  "private_key_id": "51eeb07e2ad9363574b0b015b57d54273ce3eaf9",
  "private_key": "-----BEGIN PRIVATE KEY-----\nMIIEvQIBADANBgkqhkiG9w0BAQEFAASCBKcwggSjAgEAAoIBAQDIsrRm7/gldLAW\nJNJRWnu69vgJki37OHDspQhuJHTDZHI3RnbPvj0yOPHJcVKVNziE9WJ/0yywPqpE\ngp1d1q2RD7l3B7OOk6kkoPZs0AQeBkO9cCfDYhEj/2X9SOyFH1/JiQRuuIXWy37V\nj7ZpAVo8xDWkmuO6lhj6dkTo6KlaqEvIRsvhiJhVGeN0cgAv7K38qshQsvG030l5\n1j1QRDOUaQHl2cuL6PxRgbJbYdnH7k373eBYVskY8n/RElJE50PKyKCp4Grfuwoh\n8LJ4Jh96YrKjOxEZ/PnLUySQgImt/igL3IEnQ5nFRpbuplX8E9MXoW6rWfyyGy0z\nXx1VPAktAgMBAAECggEAXRlQyCNvJ+jeOhdwnJ5toQgpfT8bJ1tCPvQ7WeR9aZox\nxWRhfvLPrnlt57Uyytcn172AqK0MIOGg2FECsOIB97Wkogunhm8G2l/0j/tavZbI\nW5soRuE59EnoRLtMRGCObY2qybW9GCujtWuKAWHIO0IFZEsZcpdoFN9CDgzHaq6t\ntC8/4Mw/O9NmRS9pWkl8wm7/i0nYzVTbtBiqS/VssE8COxHM/RbHZzw3EqLQxx3+\nAd/basrcnCFPKpjLGbrqTkpSZ+tvAxdAOOHQf1wCUs4wTyVw+zJOSRf+W9n2URgS\nyOIOPfQs5jdeoAIdykMBaGt3B3spdSuf6kIzxS1vnQKBgQD7Z0Yefao0VvzMOxD8\n3+UoXgdk5Q7q+YCbcCwMXBEinpYdJhR9znTGc+aoYwzlwQpGdmIY32cMAAf0Ft5P\n6u+AinM0g7M0Jyn0/g7AtvMxi1C/OZjFTWJZGi7E/er7AwBz8p5gIjkp+eh5e/SQ\nSfT7AKx6iYHuJXshTBOrzj0yIwKBgQDMXhkOD2prXl2+n820KxSS4hC/yRmA92Vf\nwjP3+UNBAu3YCp9rCW/Clcm869PzrqbAFs92X/dujovz5szIDMy5S9TH5DWpDchj\nOZL/EyvB8f8Ja/XP8OufgnrvYkep6J6RDTxrI6e6xzJ0Y6yHHiknZsDRHFOmKZ8V\n96FI3DZEbwKBgCDLXv05PUuokT9+8P9boYP7iBFkQ+bo9xrPrh9Knz2Z3FEfF4s1\ntEvy8ILEsPkDjniUlsVR1xpcoqz3krZwGh/1b4PJLkY+WZ3IylnfQ6gR2U2okMIk\nDxE6diFiUhW+VX/KhVha/oP4QpgeUE/GJfvcIaO2bkmHgCFe0C4YMClrAoGBAJ2A\nd7bKUq3k0EK1TgdonDaHW3kzNyCZids/BGY8CIT2CO/TYAFSCHvijNO4vGS1WXX5\nHnKQi1T9LwcN/QzAMJctxhM34dMj+Cfgm1VSJQsXwgI03gEgH7eTC8Op7qkXyfzo\nQoQfuojMNCpXFwQbToQ7QKboOd95fE2lxvssG/apAoGAQklMl2wg5e8z4Xb0h9cs\nEg8mj3Y0DtzQPMOcCDDU+oQFlMC+q+KOj4TP7T7EzCxy1L2Eeu6FK1Ide3w37lx0\njAN4MOgPnPzzGKmaiVATqMKHYskLYkitG0c+cazzDTed6QZ4vRCwLyD0G96uPVhM\nxTapOLQgVYRmy0U14S8I+bw=\n-----END PRIVATE KEY-----\n",
  "client_email": "mfc-sy1u8ory7n-b8uwidarqcbojlk@protean-aria-358811.iam.gserviceaccount.com",
  "client_id": "118266805209542710259",
  "auth_uri": "https://accounts.google.com/o/oauth2/auth",
  "token_uri": "https://oauth2.googleapis.com/token",
  "auth_provider_x509_cert_url": "https://www.googleapis.com/oauth2/v1/certs",
  "client_x509_cert_url": "https://www.googleapis.com/robot/v1/metadata/x509/mfc-sy1u8ory7n-b8uwidarqcbojlk%40protean-aria-358811.iam.gserviceaccount.com"
}
